<?xml version="1.0" encoding="utf-8"?>
<!-- Generator: Adobe Illustrator 23.0.1, SVG Export Plug-In . SVG Version: 6.00 Build 0)  -->
<svg version="1.1" id="Laag_1" xmlns="http://www.w3.org/2000/svg" xmlns:xlink="http://www.w3.org/1999/xlink" x="0px" y="0px"
	 viewBox="0 0 14 14" style="enable-background:new 0 0 14 14;" xml:space="preserve">
<style type="text/css">
	.st0{clip-path:url(#SVGID_2_);}
	.st1{clip-path:url(#SVGID_4_);fill:#8E8E93;}
</style>
<g>
	<defs>
		<path id="SVGID_1_" d="M5.5,9.9c-2.4,0-4.4-2-4.4-4.4c0-1.2,0.5-2.3,1.3-3.1c0.8-0.8,1.9-1.3,3.1-1.3c2.4,0,4.4,2,4.4,4.4
			c0,1.2-0.5,2.3-1.3,3.1S6.7,9.9,5.5,9.9z M13.7,12.6L9.9,8.7c0.7-0.9,1.1-2.1,1-3.2c0-3-2.5-5.5-5.5-5.5C4,0,2.6,0.6,1.6,1.6
			C0.6,2.6,0,4,0,5.5c0,3,2.5,5.5,5.5,5.5c1.2,0,2.3-0.4,3.2-1.1l0,0l3.8,3.8c0.2,0.2,0.5,0.3,0.8,0.2s0.5-0.3,0.6-0.6
			C14,13.1,14,12.8,13.7,12.6z"/>
	</defs>
	<clipPath id="SVGID_2_">
		<use xlink:href="#SVGID_1_"  style="overflow:visible;"/>
	</clipPath>
	<g class="st0">
		<defs>
			<rect id="SVGID_3_" width="14" height="14"/>
		</defs>
		<clipPath id="SVGID_4_">
			<use xlink:href="#SVGID_3_"  style="overflow:visible;"/>
		</clipPath>
		<rect x="-5" y="-5" class="st1" width="24" height="24"/>
	</g>
</g>
</svg>
